AE 02: Wrangling college education metrics
…
Exercises

Single function transformations

Demo: Select the name column.

# add code here
select(.data = scorecard, name)

# A tibble: 1,721 × 1
   name                               
   <chr>                              
 1 Alabama A & M University           
 2 University of Alabama at Birmingham
 3 University of Alabama in Huntsville
 4 Alabama State University           
 5 The University of Alabama          
 6 Auburn University at Montgomery    
 7 Auburn University                  
 8 Birmingham-Southern College        
 9 Faulkner University                
10 Herzing University-Birmingham      
# ℹ 1,711 more rows

Demo: Select all columns except unit_id.

# add code here
select(.data = scorecard, -unit_id)

# A tibble: 1,721 × 13
   name         state type  adm_rate sat_avg  cost net_cost avg_fac_sal pct_pell
   <chr>        <chr> <chr>    <dbl>   <dbl> <dbl>    <dbl>       <dbl>    <dbl>
 1 Alabama A &… AL    Publ…    0.684     920 23167    14982       77859    0.654
 2 University … AL    Publ…    0.867    1291 26257    16755      106533    0.331
 3 University … AL    Publ…    0.781    1259 25777    18240       92403    0.217
 4 Alabama Sta… AL    Publ…    0.966     963 21900    13527       72639    0.698
 5 The Univers… AL    Publ…    0.801    1304 31024    20888       96993    0.179
 6 Auburn Univ… AL    Publ…    0.922    1051 19771    12630       75294    0.459
 7 Auburn Univ… AL    Publ…    0.437    1292 33650    24297      104472    0.125
 8 Birmingham-… AL    Priv…    0.572    1218 35495    19723       63261    0.227
 9 Faulkner Un… AL    Priv…    0.824    1021 36169    19478       58374    0.461
10 Herzing Uni… AL    Priv…    0.941      NA 28152    21275       59625    0.640
# ℹ 1,711 more rows
# ℹ 4 more variables: comp_rate <dbl>, first_gen <dbl>, debt <dbl>,
#   locale <chr>

names(scorecard)

 [1] "unit_id"     "name"        "state"       "type"        "adm_rate"   
 [6] "sat_avg"     "cost"        "net_cost"    "avg_fac_sal" "pct_pell"   
[11] "comp_rate"   "first_gen"   "debt"        "locale"     

select(.data = scorecard, name:locale)

# A tibble: 1,721 × 13
   name         state type  adm_rate sat_avg  cost net_cost avg_fac_sal pct_pell
   <chr>        <chr> <chr>    <dbl>   <dbl> <dbl>    <dbl>       <dbl>    <dbl>
 1 Alabama A &… AL    Publ…    0.684     920 23167    14982       77859    0.654
 2 University … AL    Publ…    0.867    1291 26257    16755      106533    0.331
 3 University … AL    Publ…    0.781    1259 25777    18240       92403    0.217
 4 Alabama Sta… AL    Publ…    0.966     963 21900    13527       72639    0.698
 5 The Univers… AL    Publ…    0.801    1304 31024    20888       96993    0.179
 6 Auburn Univ… AL    Publ…    0.922    1051 19771    12630       75294    0.459
 7 Auburn Univ… AL    Publ…    0.437    1292 33650    24297      104472    0.125
 8 Birmingham-… AL    Priv…    0.572    1218 35495    19723       63261    0.227
 9 Faulkner Un… AL    Priv…    0.824    1021 36169    19478       58374    0.461
10 Herzing Uni… AL    Priv…    0.941      NA 28152    21275       59625    0.640
# ℹ 1,711 more rows
# ℹ 4 more variables: comp_rate <dbl>, first_gen <dbl>, debt <dbl>,
#   locale <chr>

Demo: Filter the data frame to keep only schools with a greater than 40% share of first-generation students.

# add code here
filter(.data = scorecard, first_gen > 0.4)

# A tibble: 347 × 14
   unit_id name          state type  adm_rate sat_avg  cost net_cost avg_fac_sal
     <dbl> <chr>         <chr> <chr>    <dbl>   <dbl> <dbl>    <dbl>       <dbl>
 1  101189 Faulkner Uni… AL    Priv…    0.824    1021 36169    19478       58374
 2  101365 Herzing Univ… AL    Priv…    0.941      NA 28152    21275       59625
 3  101587 University o… AL    Publ…    0.689    1015 22456    14006       62226
 4  102270 Stillman Col… AL    Priv…    0.645      NA 25678    16085       46260
 5  104717 Grand Canyon… AZ    Priv…    0.779      NA 31440    21798       63747
 6  106467 Arkansas Tec… AR    Publ…    0.944    1090 20919    13765       62505
 7  107983 Southern Ark… AR    Publ…    0.636    1088 24242    16307       65637
 8  110361 California B… CA    Priv…    0.799      NA 49531    26538       91179
 9  110486 California S… CA    Publ…    0.866      NA 18410     7191       91530
10  110495 California S… CA    Publ…    0.966      NA 16968     5752       93537
# ℹ 337 more rows
# ℹ 5 more variables: pct_pell <dbl>, comp_rate <dbl>, first_gen <dbl>,
#   debt <dbl>, locale <chr>

Your turn: Filter the data frame to keep only public schools with a net cost of attendance below $12,000.

# add code here
filter(.data = scorecard, type == "Public", net_cost <12000)

# A tibble: 156 × 14
   unit_id name          state type  adm_rate sat_avg  cost net_cost avg_fac_sal
     <dbl> <chr>         <chr> <chr>    <dbl>   <dbl> <dbl>    <dbl>       <dbl>
 1  101879 University o… AL    Publ…    0.957      NA 21621    10527       78363
 2  102553 University o… AK    Publ…    0.653      NA 23461    10978       85653
 3  102632 University o… AK    Publ…    0.627      NA 17471     7056       74817
 4  106412 University o… AR    Publ…    0.693     878 19968     9607       54117
 5  106458 Arkansas Sta… AR    Publ…    0.695    1119 21176    11857       67644
 6  110486 California S… CA    Publ…    0.866      NA 18410     7191       91530
 7  110495 California S… CA    Publ…    0.966      NA 16968     5752       93537
 8  110510 California S… CA    Publ…    0.911      NA 18750     8215       94716
 9  110529 California S… CA    Publ…    0.554      NA 21655    11902      103113
10  110547 California S… CA    Publ…    0.891      NA 14958     4058       95364
# ℹ 146 more rows
# ℹ 5 more variables: pct_pell <dbl>, comp_rate <dbl>, first_gen <dbl>,
#   debt <dbl>, locale <chr>

Multiple function transformations

Your turn: How many public colleges and universities in each state have a net cost of attendance below $12,000?

# add code here
filter(.data = scorecard, type == "Public", net_cost < 12000) |>
  count(state)

# A tibble: 42 × 2
   state     n
   <chr> <int>
 1 AK        2
 2 AL        1
 3 AR        2
 4 AZ        1
 5 CA       14
 6 CO        1
 7 CT        3
 8 FL       13
 9 FM        1
10 GA        5
# ℹ 32 more rows

filter(.data = scorecard, type == "Public", net_cost < 12000) |>
  group_by(state) |>
  summarize(n = n())

# A tibble: 42 × 2
   state     n
   <chr> <int>
 1 AK        2
 2 AL        1
 3 AR        2
 4 AZ        1
 5 CA       14
 6 CO        1
 7 CT        3
 8 FL       13
 9 FM        1
10 GA        5
# ℹ 32 more rows
…
