…
**Demo:** Import the data file so it looks like below. Store it as `powerball_raw`.

``` r
# A tibble: 2,577 × 61
   `Draw date`    `Last Day To Claim` `Winning Numbers` Powerball `Power Play`
   <chr>          <dttm>              <chr>                 <dbl>        <dbl>
 1 Monday, 9/23/… 2025-03-22 00:00:00 15 - 21 - 25 - 3…        19            3
 2 Saturday, 9/2… 2025-03-20 00:00:00 17 - 19 - 21 - 3…        14            2
 3 Wednesday, 9/… 2025-03-17 00:00:00 1 - 11 - 22 - 47…         7            4
 4 Monday, 9/16/… 2025-03-15 00:00:00 8 - 9 - 11 - 27 …        17            5
 5 Saturday, 9/1… 2025-03-13 00:00:00 29 - 34 - 38 - 4…        16            2
 6 Wednesday, 9/… 2025-03-10 00:00:00 10 - 12 - 55 - 6…         3            3
 7 Monday, 9/9/24 2025-03-08 00:00:00 1 - 16 - 21 - 47…         5            3
 8 Saturday, 9/7… 2025-03-06 00:00:00 14 - 34 - 37 - 5…        20            2
 9 Wednesday, 9/… 2025-03-03 00:00:00 7 - 10 - 21 - 33…        20            3
10 Monday, 9/2/24 2025-03-01 00:00:00 8 - 42 - 46 - 48…        22            3
# ℹ 2,567 more rows
# ℹ 56 more variables: Jackpot <dbl>, `Jackpot Cash Value` <dbl>,
#   `Jackpot Winners` <dbl>, `Jackpot CO Winners` <dbl>,
#   `Match 5 Prize` <dbl>, `Match 5 CO Winners` <dbl>,
#   `Match 5 Prize (with Power Play)` <dbl>,
#   `Match 5 CO Winners (with Power Play)` <dbl>,
#   `Match 4 + Powerball Prize` <dbl>, …
# ℹ Use `print(n = ...)` to see more rows
```
…
