AE 04: Pivoting Cornell Degrees
…
Demo: Pivot the cornell_deg data frame longer such that each row represents a field of study / year combination and year and pctage of graduates for that year are columns in the data frame.

# add your code here

#column name we want to collect
cornell_deg |>
  pivot_longer(
    cols = `2001`:`2022`,
    names_to = "year",
    values_to = "pct",
    names_transform = parse_number
  )

# A tibble: 132 × 3
   field_of_study  year    pct
   <chr>          <dbl>  <dbl>
 1 Computer        2001 0.0859
 2 Computer        2002 0.0745
 3 Computer        2003 0.0463
 4 Computer        2004 0.0327
 5 Computer        2005 0.032 
 6 Computer        2006 0.0221
 7 Computer        2007 0.0263
 8 Computer        2008 0.0262
 9 Computer        2009 0.0264
10 Computer        2010 0.0297
# ℹ 122 more rows

#column name we don't want to collect
cornell_deg |>
  pivot_longer(
    cols = -field_of_study,
    names_to = "year",
    values_to = "pct"
  )

# A tibble: 132 × 3
   field_of_study year     pct
   <chr>          <chr>  <dbl>
 1 Computer       2001  0.0859
 2 Computer       2002  0.0745
 3 Computer       2003  0.0463
 4 Computer       2004  0.0327
 5 Computer       2005  0.032 
 6 Computer       2006  0.0221
 7 Computer       2007  0.0263
 8 Computer       2008  0.0262
 9 Computer       2009  0.0264
10 Computer       2010  0.0297
# ℹ 122 more rows
…
