…
## Calculate means and standard errors

**Your turn:** Calculate the mean and standard error for each of the number of winners of the Match $N$ + Powerball prizes for each year.
Your data frame should look something like this:

```         
# A tibble: 24 × 11
    year match_4_powerball_co_winners_m…¹ match_4_powerball_co…² match_3_powerball_co…³ match_3_powerball_co…⁴ match_2_powerball_co…⁵
   <dbl>                            <dbl>                  <dbl>                  <dbl>                  <dbl>                  <dbl>
 1  2024                           0.104                  0.0286                   7.39                  0.834                   153.
 2  2023                           0.218                  0.0475                  11.6                   1.15                    236.
 3  2022                           0.153                  0.0363                  10.1                   1.66                    205.
 4  2021                           0.138                  0.0312                   9.88                  0.804                   198.
 5  2020                           0.0762                 0.0260                   7.49                  0.481                   156.
 6  2019                           0.125                  0.0326                  10.8                   1.18                    212.
 7  2018                           0.221                  0.0510                  11.3                   1.04                    236.
 8  2017                           0.192                  0.0412                  13.4                   1.89                    270.
 9  2016                           0.295                  0.103                   19.2                   5.47                    386.
10  2015                           0.288                  0.0839                  12.9                   1.55                    233.
# ℹ 14 more rows
# ℹ abbreviated names: ¹​match_4_powerball_co_winners_mean, ²​match_4_powerball_co_winners_se, ³​match_3_powerball_co_winners_mean,
#   ⁴​match_3_powerball_co_winners_se, ⁵​match_2_powerball_co_winners_mean
# ℹ 5 more variables: match_2_powerball_co_winners_se <dbl>, match_1_powerball_co_winners_mean <dbl>,
#   match_1_powerball_co_winners_se <dbl>, match_0_powerball_co_winners_mean <dbl>, match_0_powerball_co_winners_se <dbl>
# ℹ Use `print(n = ...)` to see more rows
```
…
